…
One final method... for now!

Instead of specifying rows/columns of interest by number, or through vectors of `TRUE`s/`FALSE`s, we can also just give the names – as character strings, or vectors of character strings.
```{r}
gapminder[,'lifeExp']
# A tibble: 1,704 x 1
#    lifeExp
#      <dbl>
#  1  28.801
#  2  30.332
#  3  31.997
#  4  34.020
#  5  36.088
#  6  38.438
#  7  39.854
#  8  40.822
#  9  41.674
# 10  41.763
# # ... with 1,694 more rows
…
An important difference between `dplyr` and base R is when use character strings we don't need to enclose them in quotation marks as we did above (i.e. gapminder[,'lifeExp'])

dplyr also comes with ways to subset our data.

If we only want to choose one column, we use `select`:
```{r}
# select(data = gapminder, lifeExp)
```
The above is valud code, but because we can pipe commands, it's best practice to just pipe all functions.

```{r}
gapminder %>% select(lifeExp)
# A tibble: 1,704 x 1
#    lifeExp
#      <dbl>
#  1  28.801
#  2  30.332
#  3  31.997
#  4  34.020
#  5  36.088
#  6  38.438
#  7  39.854
#  8  40.822
#  9  41.674
# 10  41.763
# # ... with 1,694 more rows
```

If we want to make a new column, use `mutate`.  Don't forget we have to assign it if we want to keep the changes
```{r}
gapminder <- gapminder %>% mutate(NewColumn = lifeExp * 12)
gapminder

# A tibble: 1,704 x 8
#        country continent  year lifeExp      pop gdpPercap lifeExpMonths NewColumn
#          <chr>     <chr> <int>   <dbl>    <int>     <dbl>         <dbl>     <dbl>
#  1 Afghanistan      Asia  1952  28.801  8425333  779.4453       345.612   345.612
#  2 Afghanistan      Asia  1957  30.332  9240934  820.8530       363.984   363.984
#  3 Afghanistan      Asia  1962  31.997 10267083  853.1007       383.964   383.964
#  4 Afghanistan      Asia  1967  34.020 11537966  836.1971       408.240   408.240
#  5 Afghanistan      Asia  1972  36.088 13079460  739.9811       433.056   433.056
#  6 Afghanistan      Asia  1977  38.438 14880372  786.1134       461.256   461.256
#  7 Afghanistan      Asia  1982  39.854 12881816  978.0114       478.248   478.248
#  8 Afghanistan      Asia  1987  40.822 13867957  852.3959       489.864   489.864
#  9 Afghanistan      Asia  1992  41.674 16317921  649.3414       500.088   500.088
# 10 Afghanistan      Asia  1997  41.763 22227415  635.3414       501.156   501.156
# ... with 1,694 more rows
```

If we want to select all columns except 1, we can do that with the `-` operator.  Remember that if we want to save anything we are doing, we must store it in a variable.
```{r}
gapminder <- gapminder %>% select(-NewColumn)
gapminder
# A tibble: 1,704 x 7
#        country continent  year lifeExp      pop gdpPercap lifeExpMonths
#          <chr>     <chr> <int>   <dbl>    <int>     <dbl>         <dbl>
#  1 Afghanistan      Asia  1952  28.801  8425333  779.4453       345.612
#  2 Afghanistan      Asia  1957  30.332  9240934  820.8530       363.984
#  3 Afghanistan      Asia  1962  31.997 10267083  853.1007       383.964
#  4 Afghanistan      Asia  1967  34.020 11537966  836.1971       408.240
#  5 Afghanistan      Asia  1972  36.088 13079460  739.9811       433.056
#  6 Afghanistan      Asia  1977  38.438 14880372  786.1134       461.256
#  7 Afghanistan      Asia  1982  39.854 12881816  978.0114       478.248
#  8 Afghanistan      Asia  1987  40.822 13867957  852.3959       489.864
#  9 Afghanistan      Asia  1992  41.674 16317921  649.3414       500.088
# 10 Afghanistan      Asia  1997  41.763 22227415  635.3414       501.156
# ... with 1,694 more rows
```


Now what about subsetting rows?  For this we use te `filter` command:
```{r}
gapminder %>% filter(lifeExp > 71.5)
# A tibble: 375 x 7
#      country continent  year lifeExp      pop gdpPercap lifeExpMonths
#        <chr>     <chr> <int>   <dbl>    <int>     <dbl>         <dbl>
#  1   Albania    Europe  1987  72.000  3075321  3738.933       864.000
#  2   Albania    Europe  1992  71.581  3326498  2497.438       858.972
#  3   Albania    Europe  1997  72.950  3428038  3193.055       875.400
#  4   Albania    Europe  2002  75.651  3508512  4604.212       907.812
#  5   Albania    Europe  2007  76.423  3600523  5937.030       917.076
#  6   Algeria    Africa  2007  72.301 33333216  6223.367       867.612
#  7 Argentina  Americas  1992  71.868 33958947  9308.419       862.416
#  8 Argentina  Americas  1997  73.275 36203463 10967.282       879.300
#  9 Argentina  Americas  2002  74.340 38331121  8797.641       892.080
# 10 Argentina  Americas  2007  75.320 40301927 12779.380       903.840
# ... with 365 more rows
```

We can pipe several commands, just like with the command line:
```{r}
gapminder %>% select(lifeExp, country) %>% filter(lifeExp > 71.5) %>% mutate(lifeExpdays = lifeExp * 365)
# A tibble: 375 x 3
#    lifeExp   country lifeExpdays
#      <dbl>     <chr>       <dbl>
#  1  72.000   Albania    26280.00
#  2  71.581   Albania    26127.07
#  3  72.950   Albania    26626.75
#  4  75.651   Albania    27612.61
#  5  76.423   Albania    27894.40
#  6  72.301   Algeria    26389.87
#  7  71.868 Argentina    26231.82
#  8  73.275 Argentina    26745.38
#  9  74.340 Argentina    27134.10
# 10  75.320 Argentina    27491.80
# ... with 365 more rows
```
…
